,User,Id,API_URL,Type,Created,Public Repos,Followers
0,JobCollins,9278587,https://api.github.com/users/JobCollins,User,2014-10-17T06:09:58Z,14,0
1,datasto,48990020,https://api.github.com/users/datasto,User,2019-03-27T12:31:11Z,1,0
